{
  "__inputs": [
    {
      "name": "DS_UQDS_TESTBENCH PSQL",
      "label": "uQDS Testbench PSQL",
      "description": "",
      "type": "datasource",
      "pluginId": "postgres",
      "pluginName": "PostgreSQL"
    }
  ],
  "__elements": {},
  "__requires": [
    {
      "type": "grafana",
      "id": "grafana",
      "name": "Grafana",
      "version": "10.1.5"
    },
    {
      "type": "panel",
      "id": "nline-plotlyjs-panel",
      "name": "Plotly",
      "version": "1.6.1"
    },
    {
      "type": "datasource",
      "id": "postgres",
      "name": "PostgreSQL",
      "version": "1.0.0"
    },
    {
      "type": "panel",
      "id": "table",
      "name": "Table",
      "version": ""
    }
  ],
  "annotations": {
    "list": [
      {
        "builtIn": 1,
        "datasource": {
          "type": "grafana",
          "uid": "-- Grafana --"
        },
        "enable": true,
        "hide": true,
        "iconColor": "rgba(0, 211, 255, 1)",
        "name": "Annotations & Alerts",
        "target": {
          "limit": 100,
          "matchAny": false,
          "tags": [],
          "type": "dashboard"
        },
        "type": "dashboard"
      }
    ]
  },
  "editable": true,
  "fiscalYearStartMonth": 0,
  "graphTooltip": 0,
  "id": null,
  "links": [],
  "liveNow": false,
  "panels": [
    {
      "collapsed": false,
      "gridPos": {
        "h": 1,
        "w": 24,
        "x": 0,
        "y": 0
      },
      "id": 2,
      "panels": [],
      "repeat": "channel_id",
      "repeatDirection": "h",
      "title": "Channel data $channel_id",
      "type": "row"
    },
    {
      "datasource": {
        "type": "postgres",
        "uid": "${DS_UQDS_TESTBENCH PSQL}"
      },
      "fieldConfig": {
        "defaults": {
          "color": {
            "mode": "thresholds"
          },
          "custom": {
            "align": "auto",
            "cellOptions": {
              "type": "auto"
            },
            "inspect": false
          },
          "mappings": [],
          "thresholds": {
            "mode": "absolute",
            "steps": [
              {
                "color": "green",
                "value": null
              },
              {
                "color": "red",
                "value": 80
              }
            ]
          }
        },
        "overrides": [
          {
            "matcher": {
              "id": "byName",
              "options": "Failure"
            },
            "properties": [
              {
                "id": "mappings",
                "value": [
                  {
                    "options": {
                      "false": {
                        "color": "green",
                        "index": 1,
                        "text": "Passed"
                      },
                      "true": {
                        "color": "red",
                        "index": 0,
                        "text": "NOT PASSED"
                      }
                    },
                    "type": "value"
                  }
                ]
              }
            ]
          }
        ]
      },
      "gridPos": {
        "h": 7,
        "w": 6,
        "x": 0,
        "y": 1
      },
      "id": 20,
      "options": {
        "cellHeight": "sm",
        "footer": {
          "countRows": false,
          "fields": "",
          "reducer": [
            "sum"
          ],
          "show": false
        },
        "showHeader": true
      },
      "pluginVersion": "10.1.5",
      "targets": [
        {
          "datasource": {
            "type": "postgres",
            "uid": "${DS_UQDS_TESTBENCH PSQL}"
          },
          "editorMode": "code",
          "format": "table",
          "rawQuery": true,
          "rawSql": "WITH raw_data AS (\r\n  SELECT  result_type AS \"Test\", channel_pga_setting AS \"PGA Gain\", result_failing AS \"Failure\"\r\n  FROM uqds_channel_results_latest \r\n  INNER JOIN uqds_channels USING ( uqds_channel_sql_id )\r\n  WHERE uqds_channel_sql_id = $channel_id \r\n  ORDER BY result_type, channel_pga_setting, uqds_channel_result_id DESC\r\n)\r\n\r\nSELECT *\r\nFROM raw_data\r\nORDER BY \"Failure\" DESC, \"Test\", \"PGA Gain\"",
          "refId": "A",
          "sql": {
            "columns": [
              {
                "parameters": [],
                "type": "function"
              }
            ],
            "groupBy": [
              {
                "property": {
                  "type": "string"
                },
                "type": "groupBy"
              }
            ],
            "limit": 50
          }
        }
      ],
      "title": "Test summary",
      "type": "table"
    },
    {
      "datasource": {
        "type": "postgres",
        "uid": "${DS_UQDS_TESTBENCH PSQL}"
      },
      "gridPos": {
        "h": 7,
        "w": 8,
        "x": 6,
        "y": 1
      },
      "id": 1,
      "options": {
        "allData": {},
        "config": {
          "displayModeBar": false
        },
        "data": [
          {
            "line": {
              "color": "rgb(115, 191, 105)"
            },
            "marker": {
              "size": 5,
              "symbol": "o"
            },
            "mode": "markers",
            "type": "scattergl"
          }
        ],
        "imgFormat": "png",
        "layout": {
          "font": {
            "color": "rgb(25,27,31)",
            "family": "Inter, Helvetica, Arial, sans-serif"
          },
          "hoverlabel": {
            "bgcolor": "white"
          },
          "legend": {
            "font": {
              "color": "white"
            }
          },
          "margin": {
            "b": 40,
            "l": 20,
            "r": 20,
            "t": 5
          },
          "paper_bgcolor": "rgba(0,0,0,0)",
          "plot_bgcolor": "rgba(0,0,0,0)",
          "xaxis": {
            "automargin": true,
            "autorange": true,
            "gridcolor": "grey",
            "range": [
              2.1521576622760006,
              5.677880381121285
            ],
            "tickangle": 30,
            "tickfont": {
              "color": "white"
            },
            "tickformat": ".3s",
            "ticksuffix": "Hz",
            "type": "log"
          },
          "yaxis": {
            "automargin": true,
            "autorange": true,
            "gridcolor": "grey",
            "range": [
              -56.60245773061711,
              4.222977453069049
            ],
            "tickfont": {
              "color": "white"
            },
            "ticksuffix": "dB",
            "type": "linear"
          }
        },
        "onclick": "// console.log(data);\n// window.updateVariables({query:{'var-project':'test'}, partial: true})",
        "resScale": 2,
        "script": "let x = data.series[0].fields[0].values;\nlet y = data.series[0].fields[1].values;\nlet ch = data.series[0].fields[2].values;\n\nlet channel_data = {}\n\nfor(var i = 0; i<ch.length; i+=1) {\n  if(!(ch[i] in channel_data)) {\n    channel_data[ch[i]] = {\n      name: ch[i],\n      line: {\n        width: 1,\n        opacity: 0.3\n      },\n      marker: {\n        size: 5,\n        symbol: \"x\"\n      },\n      mode: \"lines+markers\",\n      type: \"scattergl\",\n      x: [],\n      y: []\n    }\n  }\n\n  channel_data[ch[i]].x.push(x[i])\n  channel_data[ch[i]].y.push(y[i])\n}\n\nlet trace1 = {\n  x: x,\n  y: y\n};\n\nreturn { data: Object.values(channel_data) };",
        "yamlMode": true,
        "yaml_mode": true
      },
      "pluginVersion": "9.5.3",
      "targets": [
        {
          "datasource": {
            "type": "postgres",
            "uid": "${DS_UQDS_TESTBENCH PSQL}"
          },
          "editorMode": "code",
          "format": "table",
          "rawQuery": true,
          "rawSql": "SELECT (measurements->>'stimulus_frequency')::double precision AS frequency, \n  -(measurements->>'stimulus_attenuation_db')::double precision AS attenuation,\n  channel_pga_setting\nFROM uqds_channel_acquisitions \nINNER JOIN uqds_channel_results_latest USING ( uqds_channel_result_id )\nWHERE uqds_channel_sql_id = $channel_id AND result_type = 'bandwidth'\nORDER BY frequency DESC",
          "refId": "A",
          "sql": {
            "columns": [
              {
                "parameters": [],
                "type": "function"
              }
            ],
            "groupBy": [
              {
                "property": {
                  "type": "string"
                },
                "type": "groupBy"
              }
            ],
            "limit": 50
          },
          "table": "uqds_channel_acquisitions"
        }
      ],
      "title": "Bandwidth Attenuation",
      "type": "nline-plotlyjs-panel"
    },
    {
      "datasource": {
        "type": "postgres",
        "uid": "${DS_UQDS_TESTBENCH PSQL}"
      },
      "fieldConfig": {
        "defaults": {
          "color": {
            "mode": "thresholds"
          },
          "custom": {
            "align": "auto",
            "cellOptions": {
              "type": "auto"
            },
            "inspect": false,
            "minWidth": 0
          },
          "decimals": 3,
          "mappings": [],
          "thresholds": {
            "mode": "absolute",
            "steps": [
              {
                "color": "orange",
                "value": null
              },
              {
                "color": "green",
                "value": 100000
              },
              {
                "color": "orange",
                "value": 150000
              }
            ]
          },
          "unit": "hertz"
        },
        "overrides": []
      },
      "gridPos": {
        "h": 7,
        "w": 3,
        "x": 14,
        "y": 1
      },
      "id": 16,
      "options": {
        "cellHeight": "sm",
        "footer": {
          "countRows": false,
          "enablePagination": false,
          "fields": "",
          "reducer": [
            "sum"
          ],
          "show": false
        },
        "showHeader": false
      },
      "pluginVersion": "10.1.5",
      "targets": [
        {
          "datasource": {
            "type": "postgres",
            "uid": "${DS_UQDS_TESTBENCH PSQL}"
          },
          "editorMode": "code",
          "format": "table",
          "rawQuery": true,
          "rawSql": "SELECT 'x' || channel_pga_setting::text AS metric, \n  (result_data->>'-3dB point')::numeric AS value\nFROM uqds_channel_results_latest\nWHERE uqds_channel_sql_id = $channel_id AND result_type = 'bandwidth'\nORDER BY channel_pga_setting",
          "refId": "A",
          "sql": {
            "columns": [
              {
                "parameters": [],
                "type": "function"
              }
            ],
            "groupBy": [
              {
                "property": {
                  "type": "string"
                },
                "type": "groupBy"
              }
            ],
            "limit": 50
          },
          "table": "uqds_channel_acquisitions"
        }
      ],
      "title": "-3dB points",
      "type": "table"
    },
    {
      "datasource": {
        "type": "postgres",
        "uid": "${DS_UQDS_TESTBENCH PSQL}"
      },
      "gridPos": {
        "h": 7,
        "w": 7,
        "x": 17,
        "y": 1
      },
      "id": 21,
      "options": {
        "allData": {},
        "config": {
          "displayModeBar": false
        },
        "data": "",
        "imgFormat": "png",
        "layout": {
          "barmode": "overlay",
          "font": {
            "color": "rgb(25,27,31)",
            "family": "Inter, Helvetica, Arial, sans-serif"
          },
          "hoverlabel": {
            "bgcolor": "white"
          },
          "legend": {
            "font": {
              "color": "white"
            }
          },
          "margin": {
            "b": 40,
            "l": 20,
            "r": 20,
            "t": 5
          },
          "paper_bgcolor": "rgba(0,0,0,0)",
          "plot_bgcolor": "rgba(0,0,0,0)",
          "xaxis": {
            "automargin": true,
            "autorange": true,
            "gridcolor": "grey",
            "range": [
              6740.610864125496,
              133113.2085321885
            ],
            "tickangle": 30,
            "tickfont": {
              "color": "white"
            },
            "tickformat": ".3s",
            "ticksuffix": "Hz",
            "type": "linear"
          },
          "yaxis": {
            "automargin": true,
            "autorange": true,
            "gridcolor": "grey",
            "range": [
              -9.277777777777779,
              176.27777777777777
            ],
            "tickfont": {
              "color": "white"
            },
            "type": "linear"
          }
        },
        "onclick": "// console.log(data);\n// window.updateVariables({query:{'var-project':'test'}, partial: true})",
        "resScale": 2,
        "script": "let x = data.series[0].fields[0].values;\nlet ch = data.series[0].fields[1].values;\n\nlet channel_data = {}\nlet binning_lut = {\n  1: 500,\n  9: 400,\n  45: 250,\n  450: 25\n}\n\nfor(var i = 0; i<ch.length; i+=1) {\n  if(!(ch[i] in channel_data)) {\n    channel_data[ch[i]] = {\n      name: ch[i],\n      opacity: 0.7,\n      mode: \"count\",\n      type: \"histogram\",\n      histnorm: 'probability',\n      x: [],\n      xbins: {\n        size: binning_lut[ch[i]]\n      }\n    }\n  }\n\n  channel_data[ch[i]].x.push(x[i])\n}\n\n\nlet markerX = data.series[1].fields[0].values;\nlet markerGain = data.series[1].fields[1].values;\n\nlet layoutData = {\n  shapes: []\n}\n\nfor(var i = 0; i<markerX.length; i+=1) {\n  layoutData.shapes.push({\n    name: 'marker' + markerGain[i],\n    type: \"line\",\n    line: {\n      color: \"white\",\n      dash: \"dot\"\n    },\n    x0: markerX[i],\n    x1: markerX[i],\n    y0: 0,\n    y1: 0.15\n  })\n}\n\nreturn { data: Object.values(channel_data), layout: layoutData };",
        "yamlMode": true,
        "yaml_mode": true
      },
      "pluginVersion": "9.5.3",
      "targets": [
        {
          "datasource": {
            "type": "postgres",
            "uid": "${DS_UQDS_TESTBENCH PSQL}"
          },
          "editorMode": "code",
          "format": "table",
          "rawQuery": true,
          "rawSql": "SELECT (result_data->>'-3dB point')::numeric AS value, channel_pga_setting AS metric\nFROM uqds_channel_results_latest\nWHERE result_data IS NOT NULL AND result_type = 'bandwidth' AND ((result_data->>'-3dB point')::numeric BETWEEN 0 AND 300000)",
          "refId": "A",
          "sql": {
            "columns": [
              {
                "parameters": [],
                "type": "function"
              }
            ],
            "groupBy": [
              {
                "property": {
                  "type": "string"
                },
                "type": "groupBy"
              }
            ],
            "limit": 50
          }
        },
        {
          "datasource": {
            "type": "postgres",
            "uid": "${DS_UQDS_TESTBENCH PSQL}"
          },
          "editorMode": "code",
          "format": "table",
          "hide": false,
          "rawQuery": true,
          "rawSql": "SELECT (result_data->>'-3dB point')::numeric AS value, channel_pga_setting AS metric\nFROM uqds_channel_results_latest\nWHERE result_data IS NOT NULL AND result_type = 'bandwidth' AND uqds_channel_sql_id = $channel_id ",
          "refId": "B",
          "sql": {
            "columns": [
              {
                "parameters": [],
                "type": "function"
              }
            ],
            "groupBy": [
              {
                "property": {
                  "type": "string"
                },
                "type": "groupBy"
              }
            ],
            "limit": 50
          }
        }
      ],
      "title": "-3dB Population comparisons",
      "type": "nline-plotlyjs-panel"
    },
    {
      "datasource": {
        "type": "postgres",
        "uid": "${DS_UQDS_TESTBENCH PSQL}"
      },
      "gridPos": {
        "h": 8,
        "w": 6,
        "x": 0,
        "y": 8
      },
      "id": 9,
      "options": {
        "allData": {},
        "config": {
          "displayModeBar": false
        },
        "data": [
          {
            "line": {
              "color": "rgb(115, 191, 105)"
            },
            "marker": {
              "size": 5,
              "symbol": "o"
            },
            "mode": "markers",
            "type": "scattergl"
          }
        ],
        "imgFormat": "png",
        "layout": {
          "font": {
            "color": "rgb(25,27,31)",
            "family": "Inter, Helvetica, Arial, sans-serif"
          },
          "hoverlabel": {
            "bgcolor": "white"
          },
          "legend": {
            "font": {
              "color": "white"
            }
          },
          "margin": {
            "b": 40,
            "l": 20,
            "r": 20,
            "t": 5
          },
          "paper_bgcolor": "rgba(0,0,0,0)",
          "plot_bgcolor": "rgba(0,0,0,0)",
          "xaxis": {
            "automargin": true,
            "autorange": true,
            "gridcolor": "grey",
            "range": [
              2.498926598837012,
              5.668556521014894
            ],
            "tickangle": 30,
            "tickfont": {
              "color": "white"
            },
            "tickformat": ".3s",
            "ticksuffix": "Hz",
            "type": "log"
          },
          "yaxis": {
            "automargin": true,
            "autorange": true,
            "gridcolor": "grey",
            "range": [
              96.12831543052418,
              182.5119242378082
            ],
            "tickfont": {
              "color": "white"
            },
            "ticksuffix": "dB",
            "type": "linear"
          }
        },
        "onclick": "// console.log(data);\n// window.updateVariables({query:{'var-project':'test'}, partial: true})",
        "resScale": 2,
        "script": "let x = data.series[0].fields[0].values;\nlet y = data.series[0].fields[1].values;\nlet ch = data.series[0].fields[2].values;\n\nlet channel_data = {}\n\nfor(var i = 0; i<ch.length; i+=1) {\n  if(!(ch[i] in channel_data)) {\n    channel_data[ch[i]] = {\n      name: ch[i],\n      line: {\n        width: 1,\n        opacity: 0.3\n      },\n      marker: {\n        size: 5,\n        symbol: \"x\"\n      },\n      mode: \"lines+markers\",\n      type: \"scattergl\",\n      x: [],\n      y: []\n    }\n  }\n\n  channel_data[ch[i]].x.push(x[i])\n  channel_data[ch[i]].y.push(y[i])\n}\n\nlet trace1 = {\n  x: x,\n  y: y\n};\n\nreturn { data: Object.values(channel_data) };",
        "yamlMode": true,
        "yaml_mode": true
      },
      "pluginVersion": "9.5.3",
      "targets": [
        {
          "datasource": {
            "type": "postgres",
            "uid": "${DS_UQDS_TESTBENCH PSQL}"
          },
          "editorMode": "code",
          "format": "table",
          "rawQuery": true,
          "rawSql": "SELECT (measurements->>'stimulus_frequency')::double precision AS frequency, \n  (measurements->>'stimulus_attenuation_db')::double precision AS attenuation,\n  channel_pga_setting\nFROM uqds_channel_acquisitions \nINNER JOIN uqds_channel_results_latest USING ( uqds_channel_result_id )\nWHERE uqds_channel_sql_id = $channel_id AND result_type = 'cmrr'\nORDER BY frequency DESC",
          "refId": "A",
          "sql": {
            "columns": [
              {
                "parameters": [],
                "type": "function"
              }
            ],
            "groupBy": [
              {
                "property": {
                  "type": "string"
                },
                "type": "groupBy"
              }
            ],
            "limit": 50
          },
          "table": "uqds_channel_acquisitions"
        }
      ],
      "title": "CMRR",
      "type": "nline-plotlyjs-panel"
    },
    {
      "datasource": {
        "type": "postgres",
        "uid": "${DS_UQDS_TESTBENCH PSQL}"
      },
      "description": "",
      "gridPos": {
        "h": 8,
        "w": 6,
        "x": 6,
        "y": 8
      },
      "id": 17,
      "options": {
        "allData": {},
        "config": {
          "displayModeBar": false
        },
        "data": [
          {
            "line": {
              "color": "rgb(115, 191, 105)"
            },
            "marker": {
              "size": 5,
              "symbol": "o"
            },
            "mode": "markers",
            "type": "scattergl"
          }
        ],
        "imgFormat": "png",
        "layout": {
          "font": {
            "color": "rgb(25,27,31)",
            "family": "Inter, Helvetica, Arial, sans-serif"
          },
          "hoverlabel": {
            "bgcolor": "white"
          },
          "legend": {
            "font": {
              "color": "white"
            }
          },
          "margin": {
            "b": 40,
            "l": 20,
            "r": 20,
            "t": 5
          },
          "paper_bgcolor": "rgba(0,0,0,0)",
          "plot_bgcolor": "rgba(0,0,0,0)",
          "xaxis": {
            "automargin": true,
            "autorange": true,
            "gridcolor": "grey",
            "range": [
              2.241391855987351,
              4.087601201020128
            ],
            "tickangle": 30,
            "tickfont": {
              "color": "white"
            },
            "tickformat": ".3s",
            "ticksuffix": "Hz",
            "type": "log"
          },
          "yaxis": {
            "automargin": true,
            "autorange": true,
            "gridcolor": "grey",
            "range": [
              53.25216068729403,
              116.67284134822977
            ],
            "tickfont": {
              "color": "white"
            },
            "ticksuffix": "dB",
            "type": "linear"
          }
        },
        "onclick": "// console.log(data);\n// window.updateVariables({query:{'var-project':'test'}, partial: true})",
        "resScale": 2,
        "script": "let x = data.series[0].fields[0].values;\nlet y = data.series[0].fields[1].values;\nlet ch = data.series[0].fields[2].values;\n\nlet channel_data = {}\n\nfor(var i = 0; i<ch.length; i+=1) {\n  if(!(ch[i] in channel_data)) {\n    channel_data[ch[i]] = {\n      name: ch[i],\n      line: {\n        width: 1,\n        opacity: 0.3\n      },\n      marker: {\n        size: 5,\n        symbol: \"x\"\n      },\n      mode: \"lines+markers\",\n      type: \"scattergl\",\n      x: [],\n      y: []\n    }\n  }\n\n  channel_data[ch[i]].x.push(x[i])\n  channel_data[ch[i]].y.push(y[i])\n}\n\nlet trace1 = {\n  x: x,\n  y: y\n};\n\nreturn { data: Object.values(channel_data) };",
        "yamlMode": true,
        "yaml_mode": true
      },
      "pluginVersion": "9.5.3",
      "targets": [
        {
          "datasource": {
            "type": "postgres",
            "uid": "${DS_UQDS_TESTBENCH PSQL}"
          },
          "editorMode": "code",
          "format": "table",
          "rawQuery": true,
          "rawSql": "SELECT (measurements->>'stimulus_frequency')::double precision AS frequency, \n  -(measurements->>'thd_db')::double precision AS attenuation,\n  channel_pga_setting\nFROM uqds_channel_acquisitions \nINNER JOIN uqds_channel_results_latest USING ( uqds_channel_result_id )\nWHERE uqds_channel_sql_id = $channel_id AND result_type = 'thd'\nORDER BY frequency DESC",
          "refId": "A",
          "sql": {
            "columns": [
              {
                "parameters": [],
                "type": "function"
              }
            ],
            "groupBy": [
              {
                "property": {
                  "type": "string"
                },
                "type": "groupBy"
              }
            ],
            "limit": 50
          },
          "table": "uqds_channel_acquisitions"
        }
      ],
      "title": "THD",
      "type": "nline-plotlyjs-panel"
    },
    {
      "datasource": {
        "type": "postgres",
        "uid": "${DS_UQDS_TESTBENCH PSQL}"
      },
      "gridPos": {
        "h": 8,
        "w": 6,
        "x": 12,
        "y": 8
      },
      "id": 19,
      "options": {
        "allData": {},
        "config": {
          "displayModeBar": false
        },
        "data": [
          {
            "line": {
              "color": "rgb(115, 191, 105)"
            },
            "marker": {
              "size": 5,
              "symbol": "o"
            },
            "mode": "markers",
            "type": "scattergl"
          }
        ],
        "imgFormat": "png",
        "layout": {
          "font": {
            "color": "rgb(25,27,31)",
            "family": "Inter, Helvetica, Arial, sans-serif"
          },
          "hoverlabel": {
            "bgcolor": "white"
          },
          "legend": {
            "font": {
              "color": "white"
            }
          },
          "margin": {
            "b": 40,
            "l": 20,
            "r": 20,
            "t": 5
          },
          "paper_bgcolor": "rgba(0,0,0,0)",
          "plot_bgcolor": "rgba(0,0,0,0)",
          "xaxis": {
            "automargin": true,
            "autorange": true,
            "gridcolor": "grey",
            "range": [
              -108.14633101202158,
              108.14822351202159
            ],
            "tickangle": 30,
            "tickfont": {
              "color": "white"
            },
            "tickformat": ".3s",
            "ticksuffix": "%",
            "type": "linear"
          },
          "yaxis": {
            "automargin": true,
            "autorange": true,
            "gridcolor": "grey",
            "range": [
              -11.563442315352443,
              104.86870028378043
            ],
            "tickfont": {
              "color": "white"
            },
            "ticksuffix": "ppm",
            "type": "linear"
          }
        },
        "onclick": "// console.log(data);\n// window.updateVariables({query:{'var-project':'test'}, partial: true})",
        "resScale": 2,
        "script": "let x = data.series[0].fields[0].values;\nlet y = data.series[0].fields[1].values;\nlet ch = data.series[0].fields[2].values;\n\nlet channel_data = {}\n\nfor(var i = 0; i<ch.length; i+=1) {\n  if(!(ch[i] in channel_data)) {\n    channel_data[ch[i]] = {\n      name: ch[i],\n      line: {\n        width: 1,\n        opacity: 0.3\n      },\n      marker: {\n        size: 5,\n        symbol: \"x\"\n      },\n      mode: \"lines+markers\",\n      type: \"scattergl\",\n      x: [],\n      y: []\n    }\n  }\n\n  channel_data[ch[i]].x.push(x[i])\n  channel_data[ch[i]].y.push(y[i])\n}\n\nlet trace1 = {\n  x: x,\n  y: y\n};\n\nreturn { data: Object.values(channel_data) };",
        "yamlMode": true,
        "yaml_mode": true
      },
      "pluginVersion": "9.5.3",
      "targets": [
        {
          "datasource": {
            "type": "postgres",
            "uid": "${DS_UQDS_TESTBENCH PSQL}"
          },
          "editorMode": "code",
          "format": "table",
          "rawQuery": true,
          "rawSql": "WITH raw_data AS (\n  SELECT (measurements->>'stimulus_voltage')::double precision AS stim_voltage, \n    (measurements->>'avg_to_stimulus_difference')::double precision AS vdiff,\n    channel_pga_setting\n  FROM uqds_channel_acquisitions\n  INNER JOIN uqds_channel_results_latest USING ( uqds_channel_result_id )\n  WHERE result_type = 'linearity' AND uqds_channel_sql_id = $channel_id \n  ORDER BY uqds_channel_sql_id, uqds_channel_result_id, channel_pga_setting\n)\nSELECT  stim_voltage / 20 * channel_pga_setting * 1e2 AS rel_stim_voltage, \n        vdiff / 20 * channel_pga_setting * 1e6 AS rel_vdiff,\n        channel_pga_setting\nFROM raw_data\nORDER BY 1",
          "refId": "A",
          "sql": {
            "columns": [
              {
                "parameters": [],
                "type": "function"
              }
            ],
            "groupBy": [
              {
                "property": {
                  "type": "string"
                },
                "type": "groupBy"
              }
            ],
            "limit": 50
          },
          "table": "uqds_channel_acquisitions"
        }
      ],
      "title": "Calibrated linearity",
      "type": "nline-plotlyjs-panel"
    },
    {
      "datasource": {
        "type": "postgres",
        "uid": "${DS_UQDS_TESTBENCH PSQL}"
      },
      "gridPos": {
        "h": 8,
        "w": 6,
        "x": 18,
        "y": 8
      },
      "id": 18,
      "options": {
        "allData": {},
        "config": {
          "displayModeBar": false
        },
        "data": [
          {
            "line": {
              "color": "rgb(115, 191, 105)"
            },
            "marker": {
              "size": 5,
              "symbol": "o"
            },
            "mode": "markers",
            "type": "scattergl"
          }
        ],
        "imgFormat": "png",
        "layout": {
          "font": {
            "color": "rgb(25,27,31)",
            "family": "Inter, Helvetica, Arial, sans-serif"
          },
          "hoverlabel": {
            "bgcolor": "white"
          },
          "legend": {
            "font": {
              "color": "white"
            }
          },
          "margin": {
            "b": 40,
            "l": 20,
            "r": 20,
            "t": 5
          },
          "paper_bgcolor": "rgba(0,0,0,0)",
          "plot_bgcolor": "rgba(0,0,0,0)",
          "xaxis": {
            "automargin": true,
            "autorange": true,
            "gridcolor": "grey",
            "range": [
              -22.45766769736005,
              22.124436327257264
            ],
            "tickangle": 30,
            "tickfont": {
              "color": "white"
            },
            "tickformat": ".3s",
            "ticksuffix": "V",
            "type": "linear"
          },
          "yaxis": {
            "automargin": true,
            "autorange": true,
            "gridcolor": "grey",
            "range": [
              0.000006230718844442546,
              0.00012861611567857475
            ],
            "tickfont": {
              "color": "white"
            },
            "ticksuffix": "V",
            "type": "linear"
          }
        },
        "onclick": "// console.log(data);\n// window.updateVariables({query:{'var-project':'test'}, partial: true})",
        "resScale": 2,
        "script": "let x = data.series[0].fields[0].values;\nlet y = data.series[0].fields[1].values;\nlet ch = data.series[0].fields[2].values;\n\nlet channel_data = {}\n\nfor(var i = 0; i<ch.length; i+=1) {\n  if(!(ch[i] in channel_data)) {\n    channel_data[ch[i]] = {\n      name: ch[i],\n      line: {\n        width: 1,\n        opacity: 0.3\n      },\n      marker: {\n        size: 5,\n        symbol: \"x\"\n      },\n      mode: \"lines+markers\",\n      type: \"scattergl\",\n      x: [],\n      y: []\n    }\n  }\n\n  channel_data[ch[i]].x.push(x[i])\n  channel_data[ch[i]].y.push(y[i])\n}\n\nlet trace1 = {\n  x: x,\n  y: y\n};\n\nreturn { data: Object.values(channel_data) };",
        "yamlMode": true,
        "yaml_mode": true
      },
      "pluginVersion": "9.5.3",
      "targets": [
        {
          "datasource": {
            "type": "postgres",
            "uid": "${DS_UQDS_TESTBENCH PSQL}"
          },
          "editorMode": "code",
          "format": "table",
          "rawQuery": true,
          "rawSql": "SELECT (measurements->>'average')::double precision AS frequency, \n  (measurements->>'stddev')::double precision AS attenuation,\n  channel_pga_setting\nFROM uqds_channel_acquisitions \nINNER JOIN uqds_channel_results_latest USING ( uqds_channel_result_id )\nWHERE uqds_channel_sql_id = $channel_id AND result_type = 'noise'\nORDER BY frequency DESC",
          "refId": "A",
          "sql": {
            "columns": [
              {
                "parameters": [],
                "type": "function"
              }
            ],
            "groupBy": [
              {
                "property": {
                  "type": "string"
                },
                "type": "groupBy"
              }
            ],
            "limit": 50
          },
          "table": "uqds_channel_acquisitions"
        }
      ],
      "title": "Noise over voltage",
      "type": "nline-plotlyjs-panel"
    }
  ],
  "refresh": "",
  "schemaVersion": 38,
  "style": "dark",
  "tags": [],
  "templating": {
    "list": [
      {
        "current": {},
        "datasource": {
          "type": "postgres",
          "uid": "${DS_UQDS_TESTBENCH PSQL}"
        },
        "definition": "SELECT uqds_channel_sql_id AS __value, uqds_channel_id AS __text\nFROM uqds_channels",
        "hide": 0,
        "includeAll": false,
        "label": "Channel Selection",
        "multi": true,
        "name": "channel_id",
        "options": [],
        "query": "SELECT uqds_channel_sql_id AS __value, uqds_channel_id AS __text\nFROM uqds_channels",
        "refresh": 1,
        "regex": "",
        "skipUrlSync": false,
        "sort": 6,
        "type": "query"
      }
    ]
  },
  "time": {
    "from": "now-6h",
    "to": "now"
  },
  "timepicker": {},
  "timezone": "",
  "title": "Channel Inspect",
  "uid": "e9af99db-951a-4f09-8077-7d7060fd0caf",
  "version": 3,
  "weekStart": ""
}